# imp_l500_results works

    Code
      h_l500_format_curve(l500_res$ABS_Prim[1], l500_res$ABS_Sec[1])
    Output
      # A tibble: 77 x 4
          abs1  abs2 cycle abs_dif
         <dbl> <dbl> <int>   <dbl>
       1    17     0     1      17
       2     7     0     2       7
       3    -1     0     3      -1
       4    11     0     4      11
       5    10     0     5      10
       6     8     0     6       8
       7     3     0     7       3
       8     3     0     8       3
       9     5     0     9       5
      10    10     0    10      10
      # i 67 more rows
